^C:\USERS\PAULO C CARVALHO\DOCUMENTS\VISUAL STUDIO 2008\PROJECTS\YADA\YEDA\GUI.RESX|C:\USERS\PAULO C CARVALHO\DOCUMENTS\VISUAL STUDIO 2008\PROJECTS\YADA\YEDA\MSCHOPPER\MSCHOPPERCONTROL.RESX|C:\USERS\PAULO C CARVALHO\DOCUMENTS\VISUAL STUDIO 2008\PROJECTS\YADA\YEDA\PROPERTIES\RESOURCES.RESX|C:\USERS\PAULO C CARVALHO\DOCUMENTS\VISUAL STUDIO 2008\PROJECTS\YADA\YEDA\SPECTRUMVIEWER.RESX
C:\USERS\PAULO C CARVALHO\DOCUMENTS\VISUAL STUDIO 2008\PROJECTS\YADA\YEDA\OBJ\DEBUG\YADA.GUI.RESOURCES
C:\USERS\PAULO C CARVALHO\DOCUMENTS\VISUAL STUDIO 2008\PROJECTS\YADA\YEDA\OBJ\DEBUG\PATTERNTOOLS.MSCHOPPER.MSCHOPPERCONTROL.RESOURCES
C:\USERS\PAULO C CARVALHO\DOCUMENTS\VISUAL STUDIO 2008\PROJECTS\YADA\YEDA\OBJ\DEBUG\YADA.PROPERTIES.RESOURCES.RESOURCES
C:\USERS\PAULO C CARVALHO\DOCUMENTS\VISUAL STUDIO 2008\PROJECTS\YADA\YEDA\OBJ\DEBUG\YADA.SPECTRUMVIEWER.RESOURCES
^C:\USERS\PAULO C CARVALHO\DOCUMENTS\VISUAL STUDIO 2008\PROJECTS\YADA\YEDA\GUI.RESX|C:\USERS\PAULO C CARVALHO\DOCUMENTS\VISUAL STUDIO 2008\PROJECTS\YADA\YEDA\MSCHOPPER\MSCHOPPERCONTROL.RESX|C:\USERS\PAULO C CARVALHO\DOCUMENTS\VISUAL STUDIO 2008\PROJECTS\YADA\YEDA\PROPERTIES\RESOURCES.RESX
C:\USERS\PAULO C CARVALHO\DOCUMENTS\VISUAL STUDIO 2008\PROJECTS\YADA\YEDA\OBJ\DEBUG\YADA.GUI.RESOURCES
C:\USERS\PAULO C CARVALHO\DOCUMENTS\VISUAL STUDIO 2008\PROJECTS\YADA\YEDA\OBJ\DEBUG\PATTERNTOOLS.MSCHOPPER.MSCHOPPERCONTROL.RESOURCES
C:\USERS\PAULO C CARVALHO\DOCUMENTS\VISUAL STUDIO 2008\PROJECTS\YADA\YEDA\OBJ\DEBUG\YADA.PROPERTIES.RESOURCES.RESOURCES
